,val_loss,val_categorical_accuracy,val_mean_absolute_error,val_mean_squared_error,loss,categorical_accuracy,mean_absolute_error,mean_squared_error
0,1.7072428464889526,0.6000000238418579,0.23298241198062897,0.11129073798656464,0.5170005214214325,0.8295999932289123,0.09116695404052734,0.03795327557250858
1,1.5922106504440308,0.7400000095367432,0.226541668176651,0.1055125966668129,0.3138954822719097,0.8943999969959259,0.05840721979737282,0.02413727032020688
2,1.39070463180542,0.8199999928474426,0.2119060754776001,0.09339965879917145,0.25482634246349334,0.910799994468689,0.048842696249485014,0.019873743318021296
3,1.270722508430481,0.800000011920929,0.20151729881763458,0.08592727035284042,0.2318325136601925,0.9203999960422515,0.04421318210661411,0.01794022286310792
4,1.1012020111083984,0.8999999761581421,0.1844947189092636,0.07455345243215561,0.20595229864120485,0.9351999926567077,0.039732860624790194,0.0157527944073081
5,0.985466718673706,0.7599999904632568,0.17035254836082458,0.06656940281391144,0.18850186824798584,0.935999995470047,0.03642090398818255,0.014500563824549317
6,0.8513748049736023,0.8399999737739563,0.1466486155986786,0.05743607506155968,0.179953640550375,0.9343999993801116,0.03494366999715567,0.014077340699732304
7,0.5149555206298828,0.9800000190734863,0.10516072064638138,0.03309676796197891,0.1653532613813877,0.944399995803833,0.03218530416488648,0.012738597206771373
8,0.42368218302726746,0.8999999761581421,0.08340634405612946,0.02883625589311123,0.1570401282608509,0.9455999970436096,0.0309990106895566,0.01225068787112832
9,0.4710118770599365,0.9200000166893005,0.08417831361293793,0.029404444620013237,0.1533932603895664,0.9483999967575073,0.030081065092235803,0.011881973552517593
10,0.28786301612854004,0.9200000166893005,0.0598837174475193,0.020556893199682236,0.15084658637642862,0.9447999978065491,0.0287831661850214,0.01192292982712388
11,0.4782930612564087,0.8600000143051147,0.0664433091878891,0.030539564788341522,0.14028860442340374,0.9504000008106231,0.02737758982926607,0.011146671096794307
12,0.26774975657463074,0.9200000166893005,0.052041903138160706,0.02060737833380699,0.13488021142780782,0.9572000002861023,0.026249055191874503,0.010488172159530223
13,0.226753368973732,0.9399999976158142,0.03565346449613571,0.014201220124959946,0.13645345732569694,0.9515999948978424,0.02655209254473448,0.010785020017065107
